// Main script for module 'CharacterControl'

//****************************************************************************************************
// DEFINITIONS
//****************************************************************************************************

#define MAX_CHAINS 100// maximum number of command chains
#define MAX_COMMANDS 100// maximum number of commands per chain

//--------------------------------------------------
// AGS limits for control command parameter checks:
//--------------------------------------------------
#ifndef AGS_MAX_ROOMS
	#define AGS_MAX_ROOMS 1000
#endif

#ifndef AGS_MAX_GLOBALINTS
	#define AGS_MAX_GLOBALINTS 500
#endif

#ifndef AGS_MAX_GLOBALSTRINGS
	#define AGS_MAX_GLOBALSTRINGS 50
#endif

#ifndef AGS_MAX_MESSAGES
	#define AGS_MAX_MESSAGES 1000
#endif

//--------------------------------------------------

struct CharacterControl_Chain {
	String command[MAX_COMMANDS];
	String parameter1[MAX_COMMANDS], parameter2[MAX_COMMANDS], parameter3[MAX_COMMANDS], parameter4[MAX_COMMANDS];
	short endofchain;
};

struct CharacterControl_Character {
	short virtualroom; // stores which room character is supposed to be in
	bool paused; // stores whether character is currently paused
	short chainid; // stores chain character is currently executing (1 to MAX_CHAINS)
	short chainposition; // stores position within current chain (1 to MAX_COMMANDS)
	short commanddelay; // stores delay until next command is executed
	short animationplayed; // stores number of times character played animation (for 'ANIMATE' command)
	bool inprogress; // stores if character is currently executing a command
	int yoffset; // stores how far down the screen character is positioned (hidden)
};

//****************************************************************************************************
// VARIABLES
//****************************************************************************************************

int ccCharacter_VirtualRoom[];
bool ccCharacter_Paused[];
int ccCharacter_ChainID[];
int ccCharacter_ChainPosition[];
int ccCharacter_CommandDelay[];
int ccCharacter_AnimationPlayed[];
bool ccCharacter_InProgress[];
int ccCharacter_YOffset[];

CharacterControl_Chain ccChain[MAX_CHAINS];

//****************************************************************************************************
// USER FUNCTIONS PART 1
//****************************************************************************************************

//====================================================================================================
static function CharacterControl::PauseExecuting(Character *thechar) {
  ccCharacter_Paused[thechar.ID] = true;
	thechar.StopMoving();
}
//====================================================================================================
static function CharacterControl::ResumeExecuting(Character *thechar) {
  ccCharacter_Paused[thechar.ID] = false;
}
//====================================================================================================
static function CharacterControl::StopExecuting(Character *thechar) {
  if (ccCharacter_ChainID[thechar.ID]) { // if character is executing a command chain
		thechar.StopMoving();
    thechar.ChangeRoom(ccCharacter_VirtualRoom[thechar.ID], thechar.x, thechar.y - ccCharacter_YOffset[thechar.ID]); // put character physically in the room he was supposed to be in
    ccCharacter_VirtualRoom[thechar.ID] = 0;
    ccCharacter_Paused[thechar.ID] = false;
    ccCharacter_ChainID[thechar.ID] = 0; // reset character's command chain
    ccCharacter_ChainPosition[thechar.ID] = 0; // reset character's position within command chain
    ccCharacter_InProgress[thechar.ID] = false;
    ccCharacter_YOffset[thechar.ID] = 0;
	}
}
//====================================================================================================
static function CharacterControl::StartExecuting(Character *thechar, int chainid, int chainposition) {
	if (thechar == player) AbortGame("CharacterControl module error: You cannot control the player character.");
	if ((chainid < 1) || (chainid > MAX_CHAINS)) AbortGame("CharacterControl module error: Invalid chain specified: '%d'. Use numbers 1 to %d.", chainid, MAX_CHAINS);
	if (ccChain[chainid-1].endofchain == 0) AbortGame("CharacterControl module error: No commands in chain %d. Start character after setting up the chain.", chainid);
	if ((chainposition < 1) || (chainposition > ccChain[chainid-1].endofchain)) AbortGame("CharacterControl module error: Invalid position for chain %d specified: '%d'. Use numbers 1 to %d.", chainid, chainposition, ccChain[chainid-1].endofchain);

	CharacterControl.StopExecuting(thechar);

  ccCharacter_VirtualRoom[thechar.ID] = thechar.Room; // set virtual room to current physical room
	if (thechar.Room != player.Room) { // if character not in current room
    ccCharacter_YOffset[thechar.ID] = 1400 + Random(32767-2800); // set new y-offset
    thechar.ChangeRoom(player.Room, thechar.x, ccCharacter_YOffset[thechar.ID] + thechar.y); // hide character
	}

  ccCharacter_ChainID[thechar.ID] = chainid; // use specified chain
  ccCharacter_ChainPosition[thechar.ID] = chainposition; // start with command at specified chain position (optional)
  ccCharacter_Paused[thechar.ID] = false; // disable pause mode
}
//====================================================================================================
static function CharacterControl::GetChain(Character *thechar) {
  return ccCharacter_ChainID[thechar.ID];
}
//====================================================================================================
static function CharacterControl::GetChainPosition(Character *thechar) {
  return ccCharacter_ChainPosition[thechar.ID];
}
//====================================================================================================
static function CharacterControl::GetRoom(Character *thechar) {
  if (ccCharacter_ChainID[thechar.ID]) return ccCharacter_VirtualRoom[thechar.ID]; // if character is executing a command chain, return his virtual room
	else return thechar.Room; // if character is NOT executing a command chain, return his real room
}
//====================================================================================================
static bool CharacterControl::IsExecuting(Character *thechar) {
  if (ccCharacter_ChainID[thechar.ID]) return true;
	else return false;
}
//====================================================================================================
static bool CharacterControl::IsPaused(Character *thechar) {
  return ccCharacter_Paused[thechar.ID];
}
//====================================================================================================

//****************************************************************************************************
// INTERNAL FUNCTIONS
//****************************************************************************************************

//====================================================================================================
function CharacterControl_ExecuteCommand(Character *thechar) {

  if (ccCharacter_CommandDelay[thechar.ID]) { // if command delay has not yet elapsed
    ccCharacter_CommandDelay[thechar.ID]--; // decrease it
		return 0; // quit function
	}

	if (thechar == player) return 0; // if character is the player character, quit function
  if ((thechar.on == false) || (ccCharacter_Paused[thechar.ID]) || (thechar.Moving) || ((thechar.Animating) && (ccCharacter_InProgress[thechar.ID] == false))) return 0;
	  // if character is disabled, paused, moving or animating (but not cc-speaking), quit function

	// get current command and its parameters:
  String command = ccChain[ccCharacter_ChainID[thechar.ID]-1].command[ccCharacter_ChainPosition[thechar.ID]-1];
	String parameter1 = ccChain[ccCharacter_ChainID[thechar.ID]-1].parameter1[ccCharacter_ChainPosition[thechar.ID]-1];
	String parameter2 = ccChain[ccCharacter_ChainID[thechar.ID]-1].parameter2[ccCharacter_ChainPosition[thechar.ID]-1];
	String parameter3 = ccChain[ccCharacter_ChainID[thechar.ID]-1].parameter3[ccCharacter_ChainPosition[thechar.ID]-1];
	String parameter4 = ccChain[ccCharacter_ChainID[thechar.ID]-1].parameter4[ccCharacter_ChainPosition[thechar.ID]-1];

	//--------------------------------------------------
	if (command == "WALK") { // int x, int y, optional int obeywalkableareas
	//--------------------------------------------------
		thechar.UnlockView();

		if ((thechar.x == parameter1.AsInt) && (thechar.y == ccCharacter_YOffset[thechar.ID] + parameter2.AsInt)) { // if character has reached destination
			ccCharacter_ChainPosition[thechar.ID]++; // go to next command in chain
		}
		else { // if character has NOT reached destination yet
			if ((parameter3 != null) && (ccCharacter_VirtualRoom[thechar.ID] == player.Room)) { // if character should use walkable areas and is active in current room
				thechar.PlaceOnWalkableArea(); // place character on nearest walkable area (has no effect if he is on one already)
				thechar.Walk(parameter1.AsInt, ccCharacter_YOffset[thechar.ID] + parameter2.AsInt, eNoBlock, eWalkableAreas); // walk to destination obeying walkable areas
			}
			else {
				thechar.Walk(parameter1.AsInt, ccCharacter_YOffset[thechar.ID] + parameter2.AsInt, eNoBlock, eAnywhere);
				  // if character is NOT active in current room or is set to ignore walkable areas, walk to destination ignoring walkable areas
			}
		}

	}
	//--------------------------------------------------
	else if (command == "ANIMATE") { // int view, int loop, optional int delay, optional int numtimes
	//--------------------------------------------------

		if (ccCharacter_AnimationPlayed[thechar.ID] < parameter4.AsInt) { // if animation has NOT played the specified number of times (1 by default)
			thechar.LockView(parameter1.AsInt); // lock character to specified view for animation

			int tmploop = 0; // use loop 0 by default
			if (parameter2 != null) tmploop = parameter2.AsInt; // if loop has been specified, use that instead
			else if (thechar.Loop < Game.GetLoopCountForView(parameter1.AsInt)) tmploop = thechar.Loop; // if loop not specified and character's current loop exists in view, use that instead

			int tmpanimspeed = thechar.AnimationSpeed; // use character's animation speed by default
			if (parameter3 != null) tmpanimspeed = parameter3.AsInt; // if delay has been specified, use that instead

			thechar.Animate(tmploop, tmpanimspeed, eOnce, eNoBlock); // start animating the character

			ccCharacter_AnimationPlayed[thechar.ID]++; // increase number of times animation has played
		}
		else { // if animation has played the specified number of times
			ccCharacter_AnimationPlayed[thechar.ID] = 0; // reset animation counter
			ccCharacter_ChainPosition[thechar.ID]++; // go to next command in chain
		}

	}
	//--------------------------------------------------
	else if ((command == "SAY") || (command == "SAYMSG") || (command == "SAYSTR")) { // String text/int number, optional int inbackground
	//--------------------------------------------------

		if (ccCharacter_InProgress[thechar.ID] == false) {

			String buffer;
			if (command == "SAY") buffer = parameter1;
			else if (command == "SAYMSG") buffer = Game.GlobalMessages[parameter1.AsInt];
			else if (command == "SAYSTR") buffer = Game.GlobalStrings[parameter1.AsInt];

			if (buffer != null) { // if message text was found

				if (ccCharacter_VirtualRoom[thechar.ID] == player.Room) { // if character is active in current room
					thechar.SayBackground(buffer); // display message text

					if (parameter2 == null) { // if character should wait for message to time out
						if (thechar.SpeechView > 0) { // if character has a speech view assigned
							if (thechar.Loop < Game.GetLoopCountForView(thechar.SpeechView)) { // if character's current loop exists within speech view
								thechar.LockView(thechar.SpeechView); // lock character to speech view
								thechar.Animate(thechar.Loop, game.talkanim_speed, eRepeat, eNoBlock, eForwards); // play character's talking animation
							}
						}
            ccCharacter_CommandDelay[thechar.ID] = ((buffer.Length / game.text_speed) + 1) * GetGameSpeed(); // wait for message to time out
					}

				}

			}

			ccCharacter_InProgress[thechar.ID] = true;
		}
		else {
			if (thechar.View == thechar.SpeechView) thechar.UnlockView(); // if character is playing talking animation, stop it
			ccCharacter_InProgress[thechar.ID] = false;

			ccCharacter_ChainPosition[thechar.ID]++; // go to next command in chain
		}

	}
	//--------------------------------------------------
	else if (command == "WAIT") { // int min, optional int max
	//--------------------------------------------------

		if (ccCharacter_InProgress[thechar.ID] == false) {

			if (parameter2 != null) ccCharacter_CommandDelay[thechar.ID] = parameter1.AsInt + Random(parameter2.AsInt - parameter1.AsInt);
			else ccCharacter_CommandDelay[thechar.ID] = parameter1.AsInt;

			ccCharacter_InProgress[thechar.ID] = true;
		}
		else {
			ccCharacter_InProgress[thechar.ID] = false;

			ccCharacter_ChainPosition[thechar.ID]++; // go to next command in chain
		}

	}
	//--------------------------------------------------
	else if (command == "CHAIN") { // int chainid, optional int chainposition
	//--------------------------------------------------
		if (parameter2.AsInt > ccChain[parameter1.AsInt-1].endofchain) AbortGame("CharacterControl module error: Chain %d (CHAIN:%s,%s;) No command at position %s in chain %s. Use numbers 1 to %d.", ccCharacter_ChainID[thechar.ID], parameter1, parameter2, parameter2, parameter1, ccChain[parameter1.AsInt-1].endofchain);

		CharacterControl.StartExecuting(thechar, parameter1.AsInt, parameter2.AsInt);
	}
	//--------------------------------------------------
	else if (command == "ROOM") { // int room_number, int x, int y, 0
	//--------------------------------------------------
		ccCharacter_VirtualRoom[thechar.ID] = parameter1.AsInt; // set character's virtual room to specified room

		if (parameter1.AsInt == player.Room) ccCharacter_YOffset[thechar.ID] = 0; // if specified room is the current one, reset y-offset (show)
		else ccCharacter_YOffset[thechar.ID] = 1400 + Random(32767-2800); // if specified room is NOT the current one, set new y-offset (hide)

		thechar.ChangeRoom(player.Room, parameter2.AsInt, ccCharacter_YOffset[thechar.ID] + parameter3.AsInt); // place character in current room at new coordinates

		ccCharacter_ChainPosition[thechar.ID]++; // go to next command in chain
	}
	//--------------------------------------------------
	else if (command == "LOOK") { // String direction / int roomx, int roomy
	//--------------------------------------------------
		thechar.UnlockView();

		if (parameter1 == "D") thechar.FaceLocation(thechar.x, thechar.y+10);
		else if (parameter1 == "L") thechar.FaceLocation(thechar.x-10, thechar.y, eNoBlock);
		else if (parameter1 == "R") thechar.FaceLocation(thechar.x+10, thechar.y, eNoBlock);
		else if (parameter1 == "U") thechar.FaceLocation(thechar.x, thechar.y-10, eNoBlock);
		else if (parameter1 == "DR") thechar.FaceLocation(thechar.x+10, thechar.y+10, eNoBlock);
		else if (parameter1 == "UR") thechar.FaceLocation(thechar.x+10, thechar.y-10, eNoBlock);
		else if (parameter1 == "DL") thechar.FaceLocation(thechar.x-10, thechar.y+10, eNoBlock);
		else if (parameter1 == "UL") thechar.FaceLocation(thechar.x-10, thechar.y-10, eNoBlock);
		else thechar.FaceLocation(parameter1.AsInt, ccCharacter_YOffset[thechar.ID] + parameter2.AsInt, eNoBlock);

		ccCharacter_CommandDelay[thechar.ID] = 1; // let screen update before executing next command
		ccCharacter_ChainPosition[thechar.ID]++; // go to next command in chain
	}
	//--------------------------------------------------
	else if (command == "CHANGEVIEW") { // int view
	//--------------------------------------------------
		int prevloop = thechar.Loop; // save current loop
		thechar.UnlockView();
		thechar.ChangeView(parameter1.AsInt); // change character's normal view to the specified view
		if (prevloop < Game.GetLoopCountForView(parameter1.AsInt)) thechar.Loop = prevloop; // if previous loop exists in new view, restore loop
		ccCharacter_ChainPosition[thechar.ID]++; // go to next command in chain
	}
	//--------------------------------------------------
	else if (command == "GOTO") { // int chainposition
	//--------------------------------------------------
		if (parameter1.AsInt > ccChain[ccCharacter_ChainID[thechar.ID]-1].endofchain) AbortGame("CharacterControl module error: Chain %d: (GOTO:%d;) No command at position %d. Use numbers 1 to %d.", ccCharacter_ChainID[thechar.ID], parameter1, parameter1, ccChain[ccCharacter_ChainID[thechar.ID]-1].endofchain);
		ccCharacter_ChainPosition[thechar.ID] = parameter1.AsInt;
	}
	//--------------------------------------------------
	else if (command == "IF") { // int globalint, int comparison, int value, optional int followingcommandstoinclude
	//--------------------------------------------------

		if ((parameter2 == "==") && (GetGlobalInt(parameter1.AsInt)) == parameter3.AsInt) parameter4 = "0";
		else if ((parameter2 == ">") && (GetGlobalInt(parameter1.AsInt)) > parameter3.AsInt) parameter4 = "0";
		else if ((parameter2 == "<") && (GetGlobalInt(parameter1.AsInt)) < parameter3.AsInt) parameter4 = "0";
		else if ((parameter2 == "!=") && (GetGlobalInt(parameter1.AsInt)) != parameter3.AsInt) parameter4 = "0";
		else if ((parameter2 == ">=") && (GetGlobalInt(parameter1.AsInt)) >= parameter3.AsInt) parameter4 = "0";
		else if ((parameter2 == "<=") && (GetGlobalInt(parameter1.AsInt)) <= parameter3.AsInt) parameter4 = "0";

		ccCharacter_ChainPosition[thechar.ID] += parameter4.AsInt;
		ccCharacter_ChainPosition[thechar.ID]++; // go to next command in chain
	}
	//--------------------------------------------------
	else if (command == "SET") { // int globalint, int min, optional int max
	//--------------------------------------------------
		if (parameter3 != null) SetGlobalInt(parameter1.AsInt, parameter2.AsInt + Random(parameter3.AsInt - parameter2.AsInt)); // if max value specified, randomize GlobalInt value between min and max
		else SetGlobalInt(parameter1.AsInt, parameter2.AsInt); // if max value NOT specified, set GlobalInt to min value

		ccCharacter_ChainPosition[thechar.ID]++; // go to next command in chain
	}
	//--------------------------------------------------
	else if (command == "RUN") { // String parameter1, String parameter2, String parameter3, String parameter4
	//--------------------------------------------------
		#ifndef CharacterControl_RunScript_VERSION_083
			AbortGame("CharacterControl module error: This module requires v0.83 of the 'CharacterControl RunScript' module.");
		#endif
		#ifdef CharacterControl_RunScript_VERSION_083
			ccCharacter_CommandDelay[thechar.ID] = CharacterControl_RunScript(thechar, parameter1, parameter2, parameter3, parameter4);
			ccCharacter_ChainPosition[thechar.ID]++; // go to next command in chain
		#endif
	}
	//--------------------------------------------------
	else if (command == "STOP") { // no parameters
	//--------------------------------------------------
		CharacterControl.StopExecuting(thechar);
	}
	//--------------------------------------------------
	else if (command == "PAUSE") { // no parameters
	//--------------------------------------------------
		CharacterControl.PauseExecuting(thechar);
	}
	//--------------------------------------------------
//	else if (command == "NEWCOMMAND")
	else AbortGame("CharacterControl module error: Unknown command: '%s'.", command);

}
//====================================================================================================
function CharacterControl_AddChainCommand(int chainid /* 1 - MAX_CHAINS */, String command, String parameter1, String parameter2, String parameter3, String parameter4) {
	ccChain[chainid-1].command[ccChain[chainid-1].endofchain] = command;
	ccChain[chainid-1].parameter1[ccChain[chainid-1].endofchain] = parameter1;
	ccChain[chainid-1].parameter2[ccChain[chainid-1].endofchain] = parameter2;
	ccChain[chainid-1].parameter3[ccChain[chainid-1].endofchain] = parameter3;
	ccChain[chainid-1].parameter4[ccChain[chainid-1].endofchain] = parameter4;
	ccChain[chainid-1].endofchain++;
}
//====================================================================================================

//****************************************************************************************************
// EVENT HANDLER FUNCTIONS
//****************************************************************************************************

//====================================================================================================
function repeatedly_execute_always() {

//--------------------------------------------------
// Debugging test
//--------------------------------------------------
/*
Character *bugger = cGuy;
String firstline = String.Format("%s: Chain %02d, Command #%02d", bugger.scrname, ccCharacter[bugger.ID].chainid, ccCharacter[bugger.ID].chainposition);
String secondline = String.Format("[Room %02d, X:%03d, Y:%03d (%03d-%03d)", ccCharacter[bugger.ID].virtualroom, bugger.x, bugger.y - ccCharacter[bugger.ID].yoffset, bugger.y, ccCharacter[bugger.ID].yoffset);
lblTest.Text = firstline.Append(secondline);
*/
//--------------------------------------------------

	int charid = 0; // start with character 0
	while (charid < Game.CharacterCount) { // loop for each character
		if (ccCharacter_ChainID[charid]) { // if character has a chain assigned
			if (ccCharacter_ChainPosition[charid] > ccChain[ccCharacter_ChainID[charid]-1].endofchain) { // if reached end of chain
				CharacterControl.StopExecuting(character[charid]);
			}
			else { // if NOT reached end of chain
				CharacterControl_ExecuteCommand(character[charid]); // (re-)execute character's current command
			}
		}

		charid++; // loop to next character
	}

}
//====================================================================================================
function on_event(EventType event, int data) {

	if (event == eEventEnterRoomBeforeFadein) { // if player entered a new room

		int charid = 0; // start with character 0
		while (charid < Game.CharacterCount) { // loop for each character
			if (ccCharacter_ChainID[charid]) { // if character has a chain assigned and is not removed from game
				if (ccCharacter_ChainPosition[charid] > ccChain[ccCharacter_ChainID[charid]-1].endofchain) { // if reached end of chain
					CharacterControl.StopExecuting(character[charid]);
				}
				else { // if NOT reached end of chain yet
					character[charid].ChangeRoom(data, character[charid].x, character[charid].y - ccCharacter_YOffset[charid]); // place character in new room, on-screen

					if (ccCharacter_VirtualRoom[charid] == data) ccCharacter_YOffset[charid] = 0; // if character's room is the entered one, reset y-offset
					else { // if character's room is NOT the entered one
						ccCharacter_YOffset[charid] = 1400 + Random(32767-2800); // set new y-offset
						character[charid].y = ccCharacter_YOffset[charid] + character[charid].y; // hide character
					}

					CharacterControl_ExecuteCommand(character[charid]); // (re-)execute character's current command
				}
			}

			charid++; // loop to next character
		}

	}

}
//====================================================================================================

//****************************************************************************************************
// USER FUNCTIONS PART 2
//****************************************************************************************************

//====================================================================================================
static function CharacterControl::AppendChain(int chainid /* 1 - MAX_CHAINS */, String commandstring) {
	if ((chainid < 1) || (chainid > MAX_CHAINS)) AbortGame("CharacterControl module error: Invalid chain specified: '%d'. Use numbers 1 to %d.", chainid, MAX_CHAINS);
	if (commandstring.Contains(";") == -1) AbortGame("CharacterControl module error: (%s): No commands found in command string. Check syntax.", commandstring);

	int first = 0; // start with first letter
	int last = commandstring.Contains(";"); // determine end of first command line
	while (last != -1) { // loop for each command line

		//--------------------------------------------------
		String commandline = "";
		String command = "", argument1 = "", argument2 = "", argument3 = "", argument4 = "";
		int appendmode = 0; // append to command variable first
		int position = first; // start with first letter
		while (position < last) { // loop for each letter until end of command line reached
			char letter = commandstring.Chars[position]; // read letter
			commandline = commandline.AppendChar(letter); // append letter to command line

			// seperate arguments:
			if (appendmode >= 10) { // if in raw append mode
				if (letter == '|') appendmode -= 9; // if letter is a | end raw mode
			  else { // if letter is not a |
					if (appendmode == 10) command = command.AppendChar(letter);
					else if (appendmode == 11) argument1 = argument1.AppendChar(letter);
					else if (appendmode == 12) argument2 = argument2.AppendChar(letter);
					else if (appendmode == 13) argument3 = argument3.AppendChar(letter);
					else if (appendmode == 14) argument4 = argument4.AppendChar(letter);
				}
			}
			else if (letter == '|') appendmode += 10; // if letter is a | start raw mode
			//
			else if (letter == ':') appendmode++; // if letter is special character, go to next argument
			else if (letter == '(') appendmode++;
			else if (letter == ')') appendmode++;
			else if (letter == ',') appendmode++;
			//
			else if (letter != ' ') { // if letter is not empty space (trim)
				if (appendmode == 0) command = command.AppendChar(letter);
				else if (appendmode == 1) argument1 = argument1.AppendChar(letter);
				else if (appendmode == 2) argument2 = argument2.AppendChar(letter);
				else if (appendmode == 3) argument3 = argument3.AppendChar(letter);
				else if (appendmode == 4) argument4 = argument4.AppendChar(letter);
			}

			position++; // loop to next letter
		}
		if (command == "") command = null;
		if (argument1 == "") argument1 = null;
		if (argument2 == "") argument2 = null;
		if (argument3 == "") argument3 = null;
		if (argument4 == "") argument4 = null;
		//--------------------------------------------------


		//--------------------------------------------------
		// store command and parameters in chain:
		//--------------------------------------------------
		if (command == null) { Display("CharacterControl module error: Command not found."); /* ignore errors */ }
		//--------------------------------------------------
		else if (command == "ROOM") {
		//--------------------------------------------------

			if (argument1 == null) AbortGame("CharacterControl module error: (%s) No room specified. This parameter is not optional.", commandline);
			else if (argument1 == "0") { /* Accept Room 0 */ }
			else if ((argument1.AsInt < 0) || (argument1.AsInt >= AGS_MAX_ROOMS)) AbortGame("CharacterControl module error: (%s) Invalid room specified: '%s'. Use numbers 0 to %d.", commandline, argument1, AGS_MAX_ROOMS-1);

			if (argument2 == null) AbortGame("CharacterControl module error: (%s) No x-coordinate specified. This parameter is not optional.", commandline);
			else if (argument2 == "0") { /* Accept X-Coordinate 0 */ }
			else if (argument2.AsInt == 0) AbortGame("CharacterControl module error: (%s) Invalid x-coordinate specified: '%s'. Use numbers.", commandline, argument2);

			if (argument3 == null) AbortGame("CharacterControl module error: (%s) No y-coordinate specified. This parameter is not optional.", commandline);
			else if (argument3 == "0") { /* Accept Y-Coordinate 0 */ }
			else if (argument3.AsInt == 0) AbortGame("CharacterControl module error: (%s) Invalid y-coordinate specified: '%s'. Use numbers.", commandline, argument3);

			CharacterControl_AddChainCommand(chainid, "ROOM", argument1, argument2, argument3, null);
		}
		//--------------------------------------------------
		else if (command == "RUN") {
		//--------------------------------------------------
			#ifndef CharacterControl_RunScript_VERSION
				AbortGame("CharacterControl module error: (%s) 'CharacterControl RunScript' module not found. Import it and place it before the 'CharacterControl' module.", commandline);
			#endif
			#ifdef CharacterControl_RunScript_VERSION
				if (CharacterControl_RunScript_VERSION < 83) AbortGame("CharacterControl module error: You need to update the 'CharacterControl RunScript' module to version 0.83 or higher.");
			#endif

			if ((argument1 == null) || (argument1 == "0")) { /* Accept null and 0 as parameter */ }
			else if (argument1.AsInt == 0) AbortGame("CharacterControl module error: (%s) Invalid parameter specified: '%s'. Use numbers.", commandline, argument1);

			if ((argument2 == null) || (argument2 == "0")) { /* Accept null and 0 as parameter */ }
			else if (argument2.AsInt == 0) AbortGame("CharacterControl module error: (%s) Invalid parameter specified: '%s'. Use numbers.", commandline, argument2);

			if ((argument3 == null) || (argument3 == "0")) { /* Accept null and 0 as parameter */ }
			else if (argument3.AsInt == 0) AbortGame("CharacterControl module error: (%s) Invalid parameter specified: '%s'. Use numbers.", commandline, argument3);

			if ((argument4 == null) || (argument4 == "0")) { /* Accept null and 0 as parameter */ }
			else if (argument4.AsInt == 0) AbortGame("CharacterControl module error: (%s) Invalid parameter specified: '%s'. Use numbers.", commandline, argument4);

			CharacterControl_AddChainCommand(chainid, "RUN", argument1, argument2, argument3, argument4);
		}
		//--------------------------------------------------
		else if ((command == "WALK") || (command == "MOVE" /* CCS plugin */ )) {
		//--------------------------------------------------

			if (argument1 == null) AbortGame("CharacterControl module error: (%s) No x-coordinate specified. This parameter is not optional.", commandline);
			else if (argument1 == "0") { /* Accept X-Coordinate 0 */ }
			else if (argument1.AsInt == 0) AbortGame("CharacterControl module error: (%s) Invalid x-coordinate specified: '%s'. Use numbers.", commandline, argument1);

			if (argument2 == null) AbortGame("CharacterControl module error: (%s) No y-coordinate specified. This parameter is not optional.", commandline);
			else if (argument2 == "0") { /* Accept Y-Coordinate 0 */ }
			else if (argument2.AsInt == 0) AbortGame("CharacterControl module error: (%s) Invalid y-coordinate specified: '%s'. Use numbers.", commandline, argument2);

			if ((argument3 == null) || (argument3 == "0")) /* Optional parameter */ argument3 = null;
			else if (argument3.AsInt <= 0) AbortGame("CharacterControl module error: (%s) Invalid walk behaviour specified: '%s'. Use 0 or 1.", commandline, argument3);

			CharacterControl_AddChainCommand(chainid, "WALK", argument1, argument2, argument3, null);
		}
		//--------------------------------------------------
		else if (command == "WAIT") {
		//--------------------------------------------------

			if (argument1 == null) AbortGame("CharacterControl module error: (%s) No time specified. This parameter is not optional.", commandline);
			else if (argument1.AsInt <= 0) AbortGame("CharacterControl module error: (%s) Invalid time specified: '%s'. Use numbers 1 and above.", commandline, argument1);

			if (argument2 == null) { /* Optional parameter */ }
			else if (argument2.AsInt <= 0) AbortGame("CharacterControl module error: (%s) Invalid maximum time specified: '%s'. Use numbers 1 and above.", commandline, argument2);
			else if (argument2.AsInt < argument1.AsInt) AbortGame("CharacterControl module error: (%s) Maximum time has to be higher than minimum time.", commandline);

			CharacterControl_AddChainCommand(chainid, "WAIT", argument1, argument2, null, null);
		}
		//--------------------------------------------------
		else if (command == "ANIMATE") {
		//--------------------------------------------------

			if (argument1 == null) AbortGame("CharacterControl module error: (%s) No view specified. This parameter is not optional.", commandline);
			else if ((argument1.AsInt <= 0) || (argument1.AsInt > Game.ViewCount)) AbortGame("CharacterControl module error: (%s) Invalid view specified: '%s'. Use numbers 1 to %d.", commandline, argument1, Game.ViewCount);

			if (argument2 == null) { /* Optional parameter */ }
			else if (argument2 == "0") { /* Accept Loop 0 */ }
			else if ((argument2.AsInt <= 0) || (argument2.AsInt >= Game.GetLoopCountForView(argument1.AsInt)))
				AbortGame("CharacterControl module error: (%s) Invalid loop specified: '%s'. Use numbers 0 to %d.", commandline, argument2, Game.GetLoopCountForView(argument1.AsInt)-1);

			if (argument3 == null) { /* Optional parameter */ }
			else if (argument3 == "0") { /* Accept Animation speed 0 */ }
			else if (argument3.AsInt == 0) AbortGame("CharacterControl module error: (%s) Invalid delay specified: '%s'. Use numbers.", commandline, argument3);

			if (argument4 == null) /* Optional parameter */ argument4 = "1"; // if not specified, play animation once
			else if (argument4.AsInt <= 0) AbortGame("CharacterControl module error: (%s) Invalid times to play specified: '%s'. Use numbers 1 and above.", commandline, argument4);

			CharacterControl_AddChainCommand(chainid, "ANIMATE", argument1, argument2, argument3, argument4);
		}
		//--------------------------------------------------
		else if ((command == "CHAIN") || (command == "EXECUTE" /* CCS plugin */ )) {
		//--------------------------------------------------

			if (argument1 == null) AbortGame("CharacterControl module error: (%s) No chain specified. This parameter is not optional.", commandline);
			else if ((argument1.AsInt <= 0) || (argument1.AsInt > MAX_CHAINS)) AbortGame("CharacterControl module error: (%s) Invalid chain specified: '%s'. Use numbers 1 to %d.", commandline, argument1, MAX_CHAINS);

			if (argument2 == null) argument2 = "1"; // if chain position not specified, set to first command in chain
			else if ((argument2.AsInt <= 0) || (argument2.AsInt > MAX_COMMANDS)) AbortGame("CharacterControl module error: (%s) Invalid chain position specified: '%s'. Use numbers 1 to %d.", commandline, argument1, argument2, MAX_COMMANDS);

			CharacterControl_AddChainCommand(chainid, "CHAIN", argument1, argument2, null, null);
		}
		//--------------------------------------------------
		else if (command == "LOOK") {
		//--------------------------------------------------

			if (argument1 == null) AbortGame("CharacterControl module error: (%s) No direction specified. This parameter is not optional.", commandline);
			else if (argument1.UpperCase() == "DOWN") argument1 = "D";
			else if (argument1.UpperCase() == "LEFT") argument1 = "L";
			else if (argument1.UpperCase() == "RIGHT") argument1 = "R";
			else if (argument1.UpperCase() == "UP") argument1 = "U";
			else if ((argument1.UpperCase() == "DOWN-RIGHT") || (argument1.UpperCase() == "DOWNRIGHT")) argument1 = "DR";
			else if ((argument1.UpperCase() == "UP-RIGHT") || (argument1.UpperCase() == "UPRIGHT")) argument1 = "UR";
			else if ((argument1.UpperCase() == "DOWN-LEFT") || (argument1.UpperCase() == "DOWNLEFT")) argument1 = "DL";
			else if ((argument1.UpperCase() == "UP-LEFT") || (argument1.UpperCase() == "UPLEFT")) argument1 = "UL";
			else {
				if (argument1 == "0") { /* Accept X-Coordinate 0 */ }
				else if (argument1.AsInt == 0) AbortGame("CharacterControl module error: (%s) Invalid direction specified: '%s'. See module manual for available parameters.", commandline, argument1);

				if (argument2 == null) AbortGame("CharacterControl module error: (%s) No y-coordinate specified. This parameter is not optional.", commandline);
				else if (argument2 == "0") { /* Accept Y-Coordinate 0 */ }
				else if (argument2.AsInt == 0) AbortGame("CharacterControl module error: (%s) Invalid y-coordinate specified: '%s'. Use numbers.", commandline, argument2);
			}

			CharacterControl_AddChainCommand(chainid, "LOOK", argument1, argument2, null, null);
		}
		//--------------------------------------------------
		else if (command == "SAY") {
		//--------------------------------------------------

			if (argument1 == null) AbortGame("CharacterControl module error: (%s) No message text specified. This parameter is not optional.", commandline);

			if ((argument2 == null) || (argument2 == "0")) argument2 = null; // if not specified, set to wait for message timeout
			else if (argument2.AsInt <= 0) AbortGame("CharacterControl module error: (%s) Invalid wait behaviour specified: '%s'. Use numbers 0 or 1.", commandline, argument2);

			CharacterControl_AddChainCommand(chainid, "SAY", argument1, argument2, null, null);
		}
		//--------------------------------------------------
		else if (command == "SAYMSG") {
		//--------------------------------------------------

			if (argument1 == null) AbortGame("CharacterControl module error: (%s) No message number specified. This parameter is not optional.", commandline);
			else if (argument1 == "0") { /* Accept Message 0 */ }
			else if ((argument1.AsInt <= 0) || (argument1.AsInt >= AGS_MAX_MESSAGES)) AbortGame("CharacterControl module error: (%s) Invalid message specified: '%s'. Use numbers 0 to %d.", commandline, argument1, AGS_MAX_MESSAGES-1);

			if ((argument2 == null) || (argument2 == "0")) argument2 = null; // if not specified, set to wait for message timeout
			else if (argument2.AsInt <= 0) AbortGame("CharacterControl module error: (%s) Invalid wait behaviour specified: '%s'. Use 0 or 1.", commandline, argument2);

			CharacterControl_AddChainCommand(chainid, "SAYMSG", argument1, argument2, null, null);
		}
		//--------------------------------------------------
		else if (command == "SAYSTR") {
		//--------------------------------------------------

			if (argument1 == null) AbortGame("CharacterControl module error: (%s) No GlobalString number specified. This parameter is not optional.", commandline);
			else if (argument1 == "0") { /* Accept GlobalString 0 */ }
			else if ((argument1.AsInt <= 0) || (argument1.AsInt >= AGS_MAX_GLOBALSTRINGS)) AbortGame("CharacterControl module error: (%s) Invalid GlobalString specified: '%s'. Use numbers 0 to %d.", commandline, argument1, AGS_MAX_GLOBALSTRINGS-1);

			if ((argument2 == null) || (argument2 == "0")) argument2 = null; // if not specified, set to wait for message timeout
			else if (argument2.AsInt <= 0) AbortGame("CharacterControl module error: (%s) Invalid wait behaviour specified: '%s'. Use 0 or 1.", commandline, argument2);

			CharacterControl_AddChainCommand(chainid, "SAYSTR", argument1, argument2, null, null);
		}
		//--------------------------------------------------
		else if (command == "GOTO") {
		//--------------------------------------------------

			if (argument1 == null) AbortGame("CharacterControl module error: (%s) No chain position specified. This parameter is not optional.", commandline);
			else if ((argument1.AsInt <= 0) || (argument1.AsInt > MAX_COMMANDS)) AbortGame("CharacterControl module error: (%s) Invalid chain position specified: '%s'. Use numbers 1 to %d.", commandline, argument1, MAX_COMMANDS);
			else if (argument1.AsInt - 1 == ccChain[chainid-1].endofchain) AbortGame("CharacterControl module error: (%s) Chain position refers to itself and causes an infinite loop. Specify a different position.", commandline);

			CharacterControl_AddChainCommand(chainid, "GOTO", argument1, null, null, null);
		}
		//--------------------------------------------------
		else if ((command == "CHANGEVIEW") || (command == "VIEW" /* CCS plugin */ )) {
		//--------------------------------------------------

			if (argument1 == null) AbortGame("CharacterControl module error: (%s) No view specified. This parameter is not optional.", commandline);
			else if ((argument1.AsInt <= 0) || (argument1.AsInt > Game.ViewCount)) AbortGame("CharacterControl module error: (%s) Invalid view specified: '%s'. Use numbers 1 to %d.", commandline, argument1, Game.ViewCount);

			CharacterControl_AddChainCommand(chainid, "CHANGEVIEW", argument1, null, null, null);
		}
		//--------------------------------------------------
		else if ((command == "IF") || (command == "SET")) {
		//--------------------------------------------------

			if (argument1 == null) AbortGame("CharacterControl module error: (%s) No variable type specified. Use 'GlobalInt'.", commandline);
			else if ((argument1.UpperCase() != "GLOBALINT") && (argument1.UpperCase() != "GLOBAL" /* CCS plugin */ )) AbortGame("CharacterControl module error: (%s) Invalid argument specified: '%s'. Use 'GlobalInt'.", commandline, argument1);

			if (argument2 == null) AbortGame("CharacterControl module error: (%s) No GlobalInt specified. This parameter is not optional.", commandline);
			else if (argument2 == "0") { /* accept GlobalInt 0 */ }
			else if ((argument2.AsInt <= 0) || (argument2.AsInt > AGS_MAX_GLOBALINTS-1)) // if argument is text or an invalid number
				AbortGame("CharacterControl module error: (%s) Invalid GlobalInt specified: '%s'. Use numbers 0 to %d.", commandline, argument2, AGS_MAX_GLOBALINTS-1); // abort game and display error message

			// seperate operator and value:
			String operator = ""; // clear string from last command loop
			String value = ""; // clear string from last command loop
			position = 0; // start with first letter
			while(position < argument3.Length) { // loop for each letter
				char letter = argument3.Chars[position]; // read letter
				if ((letter == '=') || (letter == '!') || (letter == '>') || (letter == '<')) operator = operator.AppendChar(letter); // if letter is an operator, add to operator string
				else value = value.AppendChar(letter); // if letter is not an operator, add to value string
				position++; // loop to next letter
			}

			if (value == "") AbortGame("CharacterControl module error: (%s) No value specified. This parameter is not optional.", commandline);
			else if (value == "0") { /* Accept Value 0 */ }
			else if (value.AsInt == 0) AbortGame("CharacterControl module error: (%s) Invalid value specified: '%s'. Use numbers.", commandline, value); // if value is text, abort game and display error message

			//..................................................
			if (command == "IF") {
			//..................................................

				// check operator before storing in parameter array:
				if (operator == "") AbortGame("CharacterControl module error: (%s) No operator specified. This parameter is not optional.", commandline);
				else if (operator == "==") { /* Accept operator */ }
				else if (operator == ">") { /* Accept operator */ }
				else if (operator == "<") { /* Accept operator */ }
				else if ((operator == "!=") || (operator == "=!")) operator = "!=";
				else if ((operator == ">=") || (operator == "=>")) operator = ">=";
				else if ((operator == "<=") || (operator == "=<")) operator = "<=";
				else AbortGame("CharacterControl module error: (%s) Invalid operator specified: '%s'. See module manual for available operators.", commandline, operator);

				if (argument4 == null) argument4 = "1"; // if number of commands to include not specified, set to include only the following one
				else if (argument4.AsInt <= 0) AbortGame("CharacterControl module error: (%s) Invalid number of commands specified: '%s'. Use numbers 1 and above.", commandline, argument4);

				CharacterControl_AddChainCommand(chainid, "IF", argument2, operator, value, argument4);
			}
			//..................................................
			else if (command == "SET") {
			//..................................................

				if (argument4 == null) { /* Optional parameter */ }
				else if (argument4.AsInt <= 0) AbortGame("CharacterControl module error: (%s) Invalid maximum value specified: '%s'. Use numbers 1 and above.", commandline, argument4);
				else if (argument4.AsInt < value.AsInt) AbortGame("CharacterControl module error: (%s) Maximum value has to be higher than minimum value.", commandline);

				CharacterControl_AddChainCommand(chainid, "SET", argument2, value, argument4, null);
			}
		}
		//--------------------------------------------------
		else if (command == "PAUSE") {
		//--------------------------------------------------
			CharacterControl_AddChainCommand(chainid, "PAUSE", null, null, null, null);
		}
		//--------------------------------------------------
		else if (command == "STOP") {
		//--------------------------------------------------
			CharacterControl_AddChainCommand(chainid, "STOP", null, null, null, null);
		}
		//--------------------------------------------------
//		else if (command == "NEWCOMMAND") {
		//--------------------------------------------------
		else AbortGame("CharacterControl module error: (%s) Unknown command: '%s'. Check module manual for available commands.", commandline, command);

		first = last + 1; // determine beginning of next command line
		String rest = commandstring.Substring(first, commandstring.Length-first); // get rest of command string
		last = rest.Contains(";"); // check for end of command line
		if (last != -1) last = first + last; // if command line found, set correct end within command string
	}
}
//====================================================================================================
static function CharacterControl::CreateChain(int chainid /* 1 - MAX_CHAINS */, String commandstring) {
	if ((chainid < 1) || (chainid > MAX_CHAINS)) AbortGame("CharacterControl module error: Invalid chain specified: '%d'. Use numbers 1 to %d.", chainid, MAX_CHAINS);

	ccChain[chainid-1].endofchain = 0; // reset chain
	CharacterControl.AppendChain(chainid, commandstring); // add commands from command string to chain
}
//====================================================================================================

function game_start() {
  ccCharacter_VirtualRoom = new int[Game.CharacterCount];
  ccCharacter_Paused = new bool[Game.CharacterCount];
  ccCharacter_ChainID = new int[Game.CharacterCount];
  ccCharacter_ChainPosition = new int[Game.CharacterCount];
  ccCharacter_CommandDelay = new int[Game.CharacterCount];
  ccCharacter_AnimationPlayed = new int[Game.CharacterCount];
  ccCharacter_InProgress = new bool[Game.CharacterCount];
  ccCharacter_YOffset = new int[Game.CharacterCount];
}
