// room script file

function room_AfterFadeIn()
{
Display("Welcome to Boring Game. Currently, the game's framework is being hobbled together into something coherent. For now, please select which region you'd like to go to from one of the dialogue options.");
dRoomWarp.Start();
}
